%YAML 1.1
%TAG !u! tag:unity3d.com,2011:
--- !u!114 &11400000
MonoBehaviour:
  m_ObjectHideFlags: 0
  m_CorrespondingSourceObject: {fileID: 0}
  m_PrefabInstance: {fileID: 0}
  m_PrefabAsset: {fileID: 0}
  m_GameObject: {fileID: 0}
  m_Enabled: 1
  m_EditorHideFlags: 0
  m_Script: {fileID: 11500000, guid: 8acd54a1a376f5d4b9c624b281f4466f, type: 3}
  m_Name: Seaweed
  m_EditorClassIdentifier: 
  SoundEffect:
  - {fileID: 8300000, guid: 37a757e8c9d04e04fa5cad98498b631c, type: 3}
  - {fileID: 8300000, guid: ab540fdc704f2a44b8c34adffadc8feb, type: 3}
  - {fileID: 8300000, guid: e772a9bec1f64144295090ff2910a94d, type: 3}
